module gitlab.com/RandomCivil/tiny-url

go 1.20

require (
	github.com/go-zookeeper/zk v1.0.3
	github.com/smartystreets/goconvey v1.8.1
	go.etcd.io/etcd/client/v3 v3.5.9
	golang.org/x/exp v0.0.0-20230713183714-613f0c0eb8a1
	golang.org/x/sync v0.0.0-20210220032951-036812b2e83c
)

require (
	github.com/coreos/go-semver v0.3.0 // indirect
	github.com/coreos/go-systemd/v22 v22.3.2 // indirect
	github.com/gogo/protobuf v1.3.2 // indirect
	github.com/golang/protobuf v1.5.2 // indirect
	github.com/gopherjs/gopherjs v1.17.2 // indirect
	github.com/jtolds/gls v4.20.0+incompatible // indirect
	github.com/smarty/assertions v1.15.0 // indirect
	go.etcd.io/etcd/api/v3 v3.5.9 // indirect
	go.etcd.io/etcd/client/pkg/v3 v3.5.9 // indirect
	go.uber.org/atomic v1.7.0 // indirect
	go.uber.org/multierr v1.6.0 // indirect
	go.uber.org/zap v1.17.0 // indirect
	golang.org/x/net v0.0.0-20210405180319-a5a99cb37ef4 // indirect
	golang.org/x/sys v0.6.0 // indirect
	golang.org/x/text v0.3.5 // indirect
	google.golang.org/genproto v0.0.0-20210602131652-f16073e35f0c // indirect
	google.golang.org/grpc v1.41.0 // indirect
	google.golang.org/protobuf v1.26.0 // indirect
)
